id,talent_id,evaluation_id,enterprise_id,status,weight,created_at,updated_at,is_old
160000,9670,98,9,1,100,,,0
160001,9849,98,9,1,116.5,,,1
160002,9650,98,9,1,116.5,,,1
160003,9393,98,9,1,216,,,1
160004,9632,98,9,1,108,,,1
160005,9896,98,9,1,108,,,1
160006,9403,98,9,1,100,,,0
160007,9084,98,9,1,100,,,0
160008,9550,98,9,1,100,,,0
160009,9576,98,9,1,100,,,0
160010,9321,98,9,1,100,,,0
160011,9340,98,9,1,100,,,0
160012,9688,98,9,1,100,,,0
160013,9776,98,9,1,108,,,1
160014,9380,98,9,1,108,,,1
160015,8975,98,9,1,219,,,1
160016,9912,98,9,1,109.5,,,1
160017,9915,98,9,1,109.5,,,1
160018,9553,98,9,1,120,,,1
160019,9695,98,9,1,120,,,1
160020,9628,98,9,1,108,,,1
160021,9761,98,9,1,108,,,1
160022,9091,98,9,1,110,,,1
160023,9626,98,9,1,110,,,1
160024,9503,98,9,1,17,,,0
160025,9524,98,9,1,100.5,,,1
160026,9029,98,9,1,97.5,,,1
160027,9695,98,9,1,200,,,1
160028,9857,98,9,1,101,,,1
160029,9337,98,9,1,96,,,1
160030,9356,98,9,1,98,,,1
160031,9529,98,9,1,98,,,1
160032,9054,98,9,1,88.5,,,1
160033,9322,98,9,1,88.5,,,1
160034,9840,98,9,1,69,,,1
160035,9912,98,9,1,69,,,1
160036,9469,98,9,1,100,,,0
160037,9565,98,9,1,90,,,1
160038,9624,98,9,1,90,,,1
160039,9066,98,9,1,204,,,1
160040,9501,98,9,1,102,,,1
160041,9523,98,9,1,102,,,1
160042,9380,98,9,1,48,,,1
160043,9594,98,9,1,48,,,1
160044,9710,98,9,1,78,,,1
160045,9604,98,9,1,78,,,1
160046,9718,98,9,1,92,,,1
160047,9807,98,9,1,92,,,1
160048,9072,98,9,1,0,,,0
160049,9019,98,9,1,90,,,1
160050,9430,98,9,1,90,,,1
160051,9377,98,9,1,210,,,1
160052,9296,98,9,1,105,,,1
160053,9655,98,9,1,105,,,1
160054,9206,98,9,1,110,,,1
160055,9775,98,9,1,110,,,1
160056,9476,98,9,1,100,,,1
160057,9282,98,9,1,100,,,1
160058,9765,98,9,1,56,,,1
160059,9128,98,9,1,56,,,1
160060,9134,98,9,1,19,,,0
160061,9744,98,9,1,91,,,0
160062,9068,98,9,1,87,,,0
160063,9070,98,9,1,100,,,0
160064,9453,98,9,1,100,,,0
160065,9555,98,9,1,100,,,0
160066,9877,98,9,1,100,,,0
160067,9434,98,9,1,100,,,0
160068,9466,98,9,1,100,,,0
160069,9183,98,9,1,100,,,0
160070,9239,98,9,1,100,,,0
160071,9191,98,9,1,100,,,0
160072,9295,98,9,1,48,,,0
160073,9294,98,9,1,85,,,0
160074,9579,98,9,1,76,,,0
160075,9772,98,9,1,100,,,0
160076,9223,98,9,1,100,,,0
160077,9542,98,9,1,100,,,0
160078,8993,98,9,1,100,,,0
160079,9658,98,9,1,100,,,0
160080,9368,98,9,1,100,,,0
160081,9907,98,9,1,100,,,0
160082,9363,98,9,1,100,,,0
160083,9029,98,9,1,100,,,0
160084,9065,98,9,1,43,,,0
160085,8993,98,9,1,117.5,,,1
160086,9299,98,9,1,109.5,,,1
160087,9030,98,9,1,200,,,1
160088,9567,98,9,1,96,,,1
160089,9333,98,9,1,96,,,1
160090,9130,98,9,1,116,,,1
160091,9028,98,9,1,116,,,1
160092,8982,98,9,1,101.5,,,0
160093,9191,98,9,1,101.5,,,0
160094,9099,98,9,1,100.5,,,0
160095,9426,98,9,1,100.5,,,0
160096,9016,98,9,1,31,,,0
160097,9821,98,9,1,60,,,0
160098,9045,98,9,1,54,,,0
