id,talent_id,competence_id,enterprise_id,weight,question_level,created_at,updated_at
330000,9615,593,9,5,1,,
330001,9280,593,9,5,1,,
330002,9835,593,9,5,1,,
330003,9533,593,9,5,1,,
330004,9451,593,9,5,1,,
330005,9709,593,9,5,1,,
330006,9168,593,9,5,1,,
330007,9078,593,9,5,1,,
330008,9891,593,9,5,1,,
330009,9219,593,9,5,1,,
330010,9055,593,9,5,1,,
330011,9640,593,9,5,1,,
330012,9046,593,9,5,1,,
330013,9039,593,9,5,1,,
330014,9436,593,9,5,1,,
330015,9661,593,9,5,1,,
330016,9900,593,9,5,1,,
330017,9753,593,9,5,1,,
330018,8985,593,9,5,1,,
330019,9755,593,9,5,1,,
330020,9736,593,9,5,1,,
330021,9882,593,9,5,1,,
330022,9754,593,9,5,1,,
330023,9739,593,9,5,1,,
330024,9834,593,9,5,1,,
330025,9121,593,9,5,1,,
330026,9466,593,9,5,1,,
330027,9904,593,9,5,1,,
330028,9178,593,9,5,1,,
330029,8998,593,9,5,1,,
330030,9704,593,9,5,1,,
330031,9022,593,9,5,1,,
330032,9575,593,9,5,1,,
330033,9463,593,9,5,1,,
330034,9760,593,9,5,1,,
330035,9337,593,9,5,1,,
330036,9476,593,9,5,1,,
330037,9138,593,9,5,1,,
330038,9834,593,9,5,1,,
330039,9371,593,9,5,1,,
330040,9661,593,9,5,1,,
330041,9190,593,9,5,1,,
330042,8998,593,9,5,1,,
330043,9615,593,9,5,1,,
330044,9366,593,9,5,1,,
330045,9616,593,9,5,1,,
330046,9706,593,9,5,1,,
330047,9157,593,9,5,1,,
330048,9201,593,9,5,1,,
330049,9365,593,9,5,1,,
330050,9660,593,9,5,1,,
330051,9070,593,9,5,1,,
330052,9814,593,9,5,1,,
330053,9941,593,9,5,1,,
330054,9854,593,9,5,1,,
330055,9381,593,9,5,1,,
330056,9921,593,9,5,1,,
330057,9432,593,9,5,1,,
330058,9606,593,9,5,1,,
330059,9289,593,9,5,1,,
330060,9435,593,9,5,1,,
330061,9941,593,9,5,1,,
330062,9183,593,9,5,1,,
330063,9746,593,9,5,1,,
330064,9239,593,9,5,1,,
330065,9540,593,9,5,1,,
330066,9567,593,9,5,1,,
330067,9526,593,9,5,1,,
330068,9924,593,9,5,1,,
330069,9502,593,9,5,1,,
330070,9777,593,9,5,1,,
330071,9598,593,9,5,1,,
330072,9073,593,9,5,1,,
330073,9916,593,9,5,1,,
330074,9313,593,9,5,1,,
330075,9265,593,9,5,1,,
330076,9107,593,9,5,1,,
330077,9795,593,9,5,1,,
330078,9660,593,9,5,1,,
330079,8976,593,9,5,1,,
330080,8994,593,9,5,1,,
330081,9931,593,9,5,1,,
330082,9069,593,9,5,1,,
330083,9756,593,9,5,1,,
330084,9114,593,9,5,1,,
330085,9299,593,9,5,1,,
330086,9248,593,9,5,1,,
330087,9789,593,9,5,1,,
330088,9719,593,9,5,1,,
330089,9160,593,9,5,1,,
330090,9087,593,9,5,1,,
330091,9273,593,9,5,1,,
330092,9820,593,9,5,1,,
330093,9546,593,9,5,1,,
330094,9805,593,9,5,1,,
330095,9408,593,9,5,1,,
330096,9479,593,9,5,1,,
330097,8989,593,9,5,1,,
330098,9155,593,9,5,1,,
