id,talent_id,evaluation_id,enterprise_id,status,weight,created_at,updated_at,is_old
150000,294,95,9,0,0,,,0
150001,197,119,9,1,116.5,,,1
150002,618,23,9,1,116.5,,,1
150003,300,103,9,1,216,,,1
150004,479,113,9,1,108,,,1
150005,327,84,9,1,108,,,1
150006,440,113,9,0,0,,,0
150007,281,95,9,0,0,,,0
150008,655,117,9,0,0,,,0
150009,485,41,9,0,0,,,0
150010,600,55,9,0,0,,,0
150011,311,99,9,0,0,,,0
150012,228,49,9,0,0,,,0
150013,203,28,9,1,108,,,1
150014,570,71,9,1,108,,,1
150015,226,28,9,1,219,,,1
150016,482,39,9,1,109.5,,,1
150017,433,69,9,1,109.5,,,1
150018,275,78,9,1,120,,,1
150019,332,54,9,1,120,,,1
150020,287,61,9,1,108,,,1
150021,619,90,9,1,108,,,1
150022,407,4,9,1,110,,,1
150023,346,78,9,1,110,,,1
150024,341,18,9,1,17,,,0
150025,226,103,9,1,100.5,,,1
150026,489,47,9,1,97.5,,,1
150027,342,7,9,1,200,,,1
150028,241,66,9,1,101,,,1
150029,510,118,9,1,96,,,1
150030,408,25,9,1,98,,,1
150031,595,103,9,1,98,,,1
150032,513,19,9,1,88.5,,,1
150033,657,96,9,1,88.5,,,1
150034,556,63,9,1,69,,,1
150035,463,31,9,1,69,,,1
150036,604,5,9,0,0,,,0
150037,424,114,9,1,90,,,1
150038,421,1,9,1,90,,,1
150039,272,85,9,1,204,,,1
150040,408,21,9,1,102,,,1
150041,589,53,9,1,102,,,1
150042,533,30,9,1,48,,,1
150043,358,77,9,1,48,,,1
150044,245,104,9,1,78,,,1
150045,341,27,9,1,78,,,1
150046,518,113,9,1,92,,,1
150047,454,97,9,1,92,,,1
150048,536,52,9,0,0,,,0
150049,284,20,9,1,90,,,1
150050,417,7,9,1,90,,,1
150051,537,53,9,1,210,,,1
150052,558,24,9,1,105,,,1
150053,496,117,9,1,105,,,1
150054,546,94,9,1,110,,,1
150055,476,22,9,1,110,,,1
150056,632,38,9,1,100,,,1
150057,375,10,9,1,100,,,1
150058,438,118,9,1,56,,,1
150059,432,42,9,1,56,,,1
150060,229,96,9,1,19,,,0
150061,563,54,9,1,91,,,0
150062,245,53,9,1,87,,,0
150063,548,10,9,0,0,,,0
150064,230,33,9,0,0,,,0
150065,499,29,9,0,0,,,0
150066,273,114,9,0,0,,,0
150067,505,64,9,0,0,,,0
150068,634,116,9,0,0,,,0
150069,359,77,9,0,0,,,0
150070,455,74,9,0,0,,,0
150071,529,113,9,0,0,,,0
150072,555,110,9,1,48,,,0
150073,355,60,9,1,85,,,0
150074,223,71,9,1,76,,,0
150075,286,51,9,0,0,,,0
150076,209,43,9,0,0,,,0
150077,289,90,9,0,0,,,0
150078,334,38,9,0,0,,,0
150079,460,101,9,0,0,,,0
150080,429,44,9,0,0,,,0
150081,208,77,9,0,0,,,0
150082,462,7,9,0,0,,,0
150083,313,11,9,0,0,,,0
150084,632,111,9,1,43,,,0
150085,639,30,9,1,117.5,,,1
150086,343,31,9,1,109.5,,,1
150087,242,61,9,1,200,,,1
150088,492,19,9,1,96,,,1
150089,353,15,9,1,96,,,1
150090,300,15,9,1,116,,,1
150091,605,35,9,1,116,,,1
150092,295,7,9,1,101.5,,,0
150093,550,89,9,1,101.5,,,0
150094,425,86,9,1,100.5,,,0
150095,341,59,9,1,100.5,,,0
150096,387,86,9,1,31,,,0
150097,411,14,9,1,60,,,0
150098,556,90,9,1,54,,,0
